<?xml version="1.0" encoding="UTF-8" standalone="no"?>
<!-- Generator: Adobe Illustrator 16.0.0, SVG Export Plug-In . SVG Version: 6.00 Build 0)  -->

<svg
   xmlns:dc="http://purl.org/dc/elements/1.1/"
   xmlns:cc="http://creativecommons.org/ns#"
   xmlns:rdf="http://www.w3.org/1999/02/22-rdf-syntax-ns#"
   xmlns:svg="http://www.w3.org/2000/svg"
   xmlns="http://www.w3.org/2000/svg"
   xmlns:sodipodi="http://sodipodi.sourceforge.net/DTD/sodipodi-0.dtd"
   xmlns:inkscape="http://www.inkscape.org/namespaces/inkscape"
   version="1.1"
   id="Capa_1"
   x="0px"
   y="0px"
   width="95.546px"
   height="95.545px"
   viewBox="0 0 95.546 95.545"
   style="enable-background:new 0 0 95.546 95.545;"
   xml:space="preserve"
   inkscape:version="0.91 r13725"
   sodipodi:docname="binoculars.svg"><metadata
     id="metadata53"><rdf:RDF><cc:Work
         rdf:about=""><dc:format>image/svg+xml</dc:format><dc:type
           rdf:resource="http://purl.org/dc/dcmitype/StillImage" /></cc:Work></rdf:RDF></metadata><defs
     id="defs51" /><sodipodi:namedview
     pagecolor="#ffffff"
     bordercolor="#666666"
     borderopacity="1"
     objecttolerance="10"
     gridtolerance="10"
     guidetolerance="10"
     inkscape:pageopacity="0"
     inkscape:pageshadow="2"
     inkscape:window-width="1280"
     inkscape:window-height="738"
     id="namedview49"
     showgrid="false"
     inkscape:zoom="2.4700403"
     inkscape:cx="1.6199067"
     inkscape:cy="46.962795"
     inkscape:window-x="0"
     inkscape:window-y="25"
     inkscape:window-maximized="1"
     inkscape:current-layer="Capa_1" /><g
     id="g3"
     style="fill:#fefefe;fill-opacity:1"><g
       id="g5"
       style="fill:#fefefe;fill-opacity:1"><path
         d="M65.947,29.686c-1.903-0.521-6.465-1.327-6.465-1.327s-6.23-4.946-11.721-4.946c-5.49,0-11.699,4.946-11.699,4.946    s-4.561,0.806-6.465,1.327c8.529,3.114,14.647,11.286,14.647,20.879c0,3.94-1.04,7.64-2.845,10.853h6.359h0.025h6.358    c-1.805-3.213-2.845-6.911-2.845-10.853C51.3,40.973,57.419,32.801,65.947,29.686z"
         id="path7"
         style="fill:#fefefe;fill-opacity:1" /><g
         id="g9"
         style="fill:#fefefe;fill-opacity:1"><path
           d="M20.749,30.635C9.308,30.635,0,39.943,0,51.383s9.308,20.75,20.749,20.75s20.75-9.31,20.75-20.75     C41.499,39.941,32.19,30.635,20.749,30.635z M20.749,64.488c-7.226,0-13.104-5.878-13.104-13.104     c0-7.226,5.879-13.104,13.104-13.104c7.226,0,13.105,5.88,13.105,13.104C33.854,58.61,27.975,64.488,20.749,64.488z"
           id="path11"
           style="fill:#fefefe;fill-opacity:1" /><path
           d="M12.287,44.776c-2.838,3.68-2.595,8.762,0.33,12.146c-1.038-3.456-0.462-7.343,1.91-10.417     c2.373-3.075,5.986-4.617,9.593-4.489C20.105,40.044,15.126,41.099,12.287,44.776z"
           id="path13"
           style="fill:#fefefe;fill-opacity:1" /><path
           d="M74.797,30.635c-11.441,0-20.75,9.308-20.75,20.749s9.309,20.75,20.75,20.75s20.749-9.31,20.749-20.75     C95.546,39.941,86.238,30.635,74.797,30.635z M74.797,64.488c-7.227,0-13.105-5.878-13.105-13.104     c0-7.226,5.879-13.104,13.105-13.104S87.9,44.159,87.9,51.383C87.9,58.61,82.023,64.488,74.797,64.488z"
           id="path15"
           style="fill:#fefefe;fill-opacity:1" /><path
           d="M71.426,42.017c3.607-0.128,7.221,1.414,9.594,4.489c2.373,3.074,2.947,6.962,1.91,10.417     c2.924-3.385,3.168-8.467,0.329-12.146C80.42,41.099,75.441,40.044,71.426,42.017z"
           id="path17"
           style="fill:#fefefe;fill-opacity:1" /></g></g></g><g
     id="g19" /><g
     id="g21" /><g
     id="g23" /><g
     id="g25" /><g
     id="g27" /><g
     id="g29" /><g
     id="g31" /><g
     id="g33" /><g
     id="g35" /><g
     id="g37" /><g
     id="g39" /><g
     id="g41" /><g
     id="g43" /><g
     id="g45" /><g
     id="g47" /></svg>