<?xml version="1.0" encoding="UTF-8" standalone="no"?>
<svg width="365px" height="180px" viewBox="0 0 365 180" version="1.1" xmlns="http://www.w3.org/2000/svg" xmlns:xlink="http://www.w3.org/1999/xlink">
    <!-- Generator: Sketch 3.8.1 (29687) - http://www.bohemiancoding.com/sketch -->
    <title>logo-negro</title>
    <desc>Created with Sketch.</desc>
    <defs>
        <polygon id="path-1" points="107.910622 0.61 0.343942222 0.61 0.343942222 78.2594831 107.910622 78.2594831 107.910622 0.61"></polygon>
        <polygon id="path-3" points="180.813 42.4359 180.813 0.4829 0.4852 0.4829 0.4852 42.4359"></polygon>
        <polygon id="path-5" points="0.2715 53 112.4415 53 112.4415 0.9852 0.2715 0.9852"></polygon>
    </defs>
    <g id="Page-1" stroke="none" stroke-width="1" fill="none" fill-rule="evenodd">
        <g id="logo-negro">
            <g id="Page-1" transform="translate(15.000000, 17.000000)">
                <g id="Group-12" transform="translate(36.000000, 0.390000)">
                    <g id="Group-3" transform="translate(94.000000, 0.000000)">
                        <mask id="mask-2" fill="white">
                            <use xlink:href="#path-1"></use>
                        </mask>
                        <g id="Clip-2"></g>
                        <path d="M104.6648,67.1581 L104.2108,66.9321 L101.4318,71.6491 C100.9468,72.4721 99.7918,72.6911 98.8528,72.1381 C97.9128,71.5841 97.5448,70.4681 98.0298,69.6451 L100.6688,65.1651 L100.2298,64.9471 L97.1978,70.0931 C96.6558,71.0141 95.3638,71.2581 94.3138,70.6401 C93.2638,70.0211 92.8518,68.7731 93.3938,67.8531 L96.2688,62.9721 L95.9078,62.7921 L92.4958,68.5851 C91.8888,69.6151 90.5448,69.9501 89.4938,69.3311 C88.4438,68.7121 88.0848,67.3751 88.6918,66.3441 L91.9468,60.8171 L91.4338,60.5611 L88.7518,65.1151 C88.2098,66.0351 86.9188,66.2801 85.8678,65.6611 C84.8178,65.0421 84.4058,63.7941 84.9478,62.8741 L87.4728,58.5871 L82.1568,55.9361 C82.6418,56.5801 82.9438,57.5201 82.8398,58.9181 L82.5558,62.6791 L83.1498,66.9021 L83.1838,67.1091 C83.1838,67.1091 83.4948,68.3551 83.6678,69.7801 L99.1638,77.5061 L99.4368,77.6431 C102.3328,79.0861 105.8498,77.9091 107.2938,75.0141 C108.7378,72.1191 107.5598,68.6011 104.6648,67.1581 L104.6648,67.1581 Z M77.3588,46.3561 C79.0048,37.2801 77.4298,27.6231 72.3108,19.2361 C71.9128,18.5841 71.4998,17.9381 71.0588,17.3021 C63.0788,5.7991 49.9968,-0.0529 36.9738,0.6691 C36.7498,0.6821 36.5248,0.7011 36.3008,0.7171 C33.8818,0.8931 31.4688,1.2941 29.0928,1.9321 C24.8928,3.0591 20.8118,4.9121 17.0328,7.5331 C7.6358,14.0521 2.0098,23.9771 0.6578,34.4931 C0.6468,34.5731 0.6418,34.6511 0.6318,34.7311 C0.5648,35.2791 0.5058,35.8291 0.4618,36.3801 C0.4438,36.6121 0.4348,36.8441 0.4208,37.0761 C0.3968,37.4711 0.3708,37.8651 0.3588,38.2611 C0.3498,38.5631 0.3508,38.8621 0.3478,39.1631 C0.3458,39.4911 0.3408,39.8181 0.3468,40.1461 C0.3518,40.4751 0.3678,40.8011 0.3818,41.1281 C0.3948,41.4311 0.4058,41.7341 0.4258,42.0371 C0.4478,42.3661 0.4788,42.6921 0.5098,43.0181 C0.5378,43.3251 0.5648,43.6311 0.5998,43.9381 C0.6358,44.2461 0.6798,44.5511 0.7228,44.8581 C0.7688,45.1841 0.8148,45.5111 0.8688,45.8371 C0.9148,46.1141 0.9688,46.3901 1.0208,46.6651 C1.0878,47.0201 1.1558,47.3741 1.2328,47.7281 C1.2858,47.9671 1.3438,48.2041 1.4008,48.4411 C1.4928,48.8281 1.5868,49.2131 1.6918,49.5981 C1.7468,49.8001 1.8068,50.0001 1.8648,50.2021 C1.9838,50.6141 2.1058,51.0251 2.2388,51.4341 C2.2958,51.6071 2.3568,51.7791 2.4158,51.9511 C2.5618,52.3781 2.7108,52.8041 2.8718,53.2271 C2.9328,53.3851 2.9978,53.5411 3.0598,53.6981 C3.2288,54.1251 3.4018,54.5511 3.5868,54.9741 C3.6568,55.1351 3.7338,55.2931 3.8068,55.4541 C3.9928,55.8631 4.1798,56.2721 4.3818,56.6771 C4.4738,56.8631 4.5738,57.0441 4.6688,57.2281 C4.8608,57.5991 5.0518,57.9711 5.2568,58.3391 C5.3948,58.5861 5.5438,58.8271 5.6868,59.0711 C5.8628,59.3701 6.0328,59.6711 6.2178,59.9661 C6.5018,60.4211 6.7988,60.8681 7.1008,61.3111 C7.1568,61.3931 7.2068,61.4771 7.2638,61.5581 C7.2658,61.5611 7.2678,61.5641 7.2688,61.5661 C7.6338,62.0911 8.0118,62.6061 8.4008,63.1131 C8.5798,63.3461 8.7678,63.5681 8.9518,63.7961 C9.1658,64.0611 9.3758,64.3291 9.5958,64.5891 C9.8348,64.8711 10.0828,65.1411 10.3278,65.4141 C10.5038,65.6091 10.6748,65.8061 10.8538,65.9971 C11.1248,66.2871 11.4038,66.5661 11.6828,66.8461 C11.8488,67.0121 12.0118,67.1821 12.1808,67.3461 C12.4668,67.6231 12.7598,67.8891 13.0528,68.1561 C13.2278,68.3161 13.3998,68.4771 13.5778,68.6341 C13.8638,68.8851 14.1568,69.1261 14.4488,69.3681 C14.6478,69.5331 14.8458,69.7001 15.0488,69.8611 C15.3218,70.0771 15.5998,70.2861 15.8788,70.4941 C16.1138,70.6711 16.3478,70.8491 16.5878,71.0201 C16.8378,71.1991 17.0918,71.3701 17.3448,71.5421 C17.6248,71.7321 17.9038,71.9231 18.1898,72.1061 C18.4088,72.2461 18.6298,72.3801 18.8518,72.5161 C19.1798,72.7171 19.5088,72.9181 19.8438,73.1101 C20.0288,73.2161 20.2168,73.3171 20.4028,73.4191 C20.7778,73.6261 21.1538,73.8311 21.5368,74.0261 C21.6918,74.1051 21.8498,74.1791 22.0058,74.2561 C22.4218,74.4601 22.8388,74.6611 23.2628,74.8511 C23.3948,74.9101 23.5278,74.9641 23.6598,75.0221 C24.1068,75.2161 24.5548,75.4061 25.0108,75.5841 C25.1348,75.6321 25.2598,75.6751 25.3848,75.7221 C25.8468,75.8971 26.3118,76.0691 26.7838,76.2271 C26.9128,76.2701 27.0428,76.3071 27.1718,76.3491 C27.6388,76.5001 28.1078,76.6491 28.5838,76.7831 C28.7298,76.8251 28.8778,76.8581 29.0248,76.8981 C29.4868,77.0221 29.9488,77.1461 30.4178,77.2541 C30.5338,77.2811 30.6508,77.3011 30.7668,77.3271 C31.2598,77.4361 31.7538,77.5441 32.2548,77.6351 C32.4488,77.6701 32.6408,77.6911 32.8348,77.7231 C33.2908,77.7981 33.7468,77.8731 34.2058,77.9321 C34.5448,77.9761 34.8828,78.0061 35.2208,78.0411 C35.5418,78.0741 35.8628,78.1091 36.1848,78.1341 C36.5578,78.1631 36.9288,78.1821 37.3008,78.2001 C37.5848,78.2141 37.8688,78.2271 38.1528,78.2341 C38.5418,78.2451 38.9288,78.2491 39.3158,78.2481 C39.5848,78.2471 39.8538,78.2421 40.1228,78.2361 C40.5138,78.2271 40.9028,78.2151 41.2918,78.1931 C41.5678,78.1781 41.8428,78.1561 42.1188,78.1351 C42.4938,78.1071 42.8688,78.0791 43.2408,78.0401 C43.5608,78.0071 43.8788,77.9621 44.1978,77.9201 C44.5218,77.8781 44.8468,77.8411 45.1688,77.7901 C45.7198,77.7051 46.2678,77.6031 46.8158,77.4931 C46.9028,77.4751 46.9908,77.4631 47.0768,77.4451 C49.0738,77.0301 51.0488,76.4481 52.9878,75.7081 C52.9968,75.7041 53.0058,75.7001 53.0148,75.6971 C53.6358,75.4591 54.2528,75.2031 54.8648,74.9321 C54.8928,74.9191 54.9198,74.9061 54.9478,74.8931 C55.5318,74.6331 56.1118,74.3571 56.6868,74.0651 C56.7368,74.0391 56.7878,74.0121 56.8378,73.9861 C57.3798,73.7081 57.9168,73.4171 58.4488,73.1121 C58.5258,73.0681 58.6008,73.0221 58.6778,72.9771 C59.1778,72.6861 59.6728,72.3831 60.1638,72.0671 C60.2568,72.0071 60.3488,71.9461 60.4408,71.8851 C60.7238,71.7001 61.0098,71.5221 61.2888,71.3281 C61.4798,71.1961 61.6598,71.0541 61.8478,70.9191 C61.9338,70.8571 62.0188,70.7941 62.1038,70.7321 C62.5788,70.3841 63.0438,70.0281 63.4978,69.6631 C63.5248,69.6421 63.5528,69.6221 63.5798,69.6011 C63.6778,69.5211 63.7778,69.4431 63.8758,69.3621 C63.9038,69.3391 63.9288,69.3141 63.9568,69.2911 C66.2518,67.3891 68.2798,65.2701 70.0268,62.9801 L70.0268,62.9801 L75.6368,65.7771 C77.0178,61.0131 78.2498,54.6651 78.2498,54.6651 C78.2498,54.6651 78.8188,54.5711 79.5528,54.6381 L75.6448,52.6891 C75.6768,52.6011 75.7048,52.5111 75.7358,52.4231 C75.8658,52.0551 75.9928,51.6861 76.1118,51.3151 C76.1738,51.1231 76.2308,50.9301 76.2898,50.7371 C76.3928,50.3991 76.4958,50.0611 76.5888,49.7211 C76.6798,49.3921 76.7608,49.0601 76.8438,48.7271 C76.8958,48.5131 76.9548,48.3001 77.0038,48.0841 C77.1348,47.5141 77.2558,46.9391 77.3608,46.3571 L77.3588,46.3561 Z M56.7018,64.7181 L56.7018,64.7181 L56.7018,64.7181 C56.7008,64.7191 56.6988,64.7201 56.6968,64.7211 C55.9278,65.2541 55.1398,65.7401 54.3408,66.1931 C54.2748,66.2311 54.2088,66.2721 54.1418,66.3101 C53.3758,66.7381 52.5958,67.1231 51.8068,67.4791 C51.7048,67.5251 51.6038,67.5741 51.5018,67.6181 C50.7278,67.9581 49.9438,68.2601 49.1528,68.5321 C49.0368,68.5711 48.9218,68.6121 48.8058,68.6501 C48.0148,68.9111 47.2188,69.1381 46.4168,69.3321 C46.3028,69.3591 46.1888,69.3861 46.0738,69.4121 C45.2608,69.5991 44.4438,69.7541 43.6238,69.8741 C43.5288,69.8871 43.4338,69.8991 43.3378,69.9121 C42.4938,70.0271 41.6478,70.1101 40.8008,70.1551 C40.7438,70.1581 40.6878,70.1581 40.6318,70.1611 C38.8238,70.2451 37.0168,70.1751 35.2308,69.9451 L35.2288,69.9451 L35.2288,69.9501 C35.1928,69.9451 35.1588,69.9381 35.1238,69.9331 C35.1238,69.9331 35.1238,69.9331 35.1228,69.9331 C35.0608,69.9251 34.9998,69.9131 34.9378,69.9051 C34.9308,69.9041 34.9238,69.9021 34.9168,69.9021 C34.9128,69.9011 34.9098,69.9001 34.9058,69.9001 C34.4168,69.8311 33.9298,69.7521 33.4448,69.6601 C33.2988,69.6331 33.1558,69.6001 33.0108,69.5711 C32.6758,69.5021 32.3418,69.4331 32.0088,69.3541 C31.7708,69.2971 31.5358,69.2341 31.2998,69.1721 C31.0658,69.1101 30.8318,69.0501 30.5988,68.9831 C30.3038,68.8981 30.0128,68.8061 29.7218,68.7131 C29.5498,68.6571 29.3768,68.6041 29.2058,68.5461 C28.8798,68.4351 28.5588,68.3171 28.2388,68.1961 C28.1008,68.1441 27.9628,68.0931 27.8258,68.0401 C27.4908,67.9071 27.1598,67.7671 26.8308,67.6241 C26.7058,67.5701 26.5818,67.5171 26.4578,67.4611 C26.1288,67.3131 25.8038,67.1571 25.4808,66.9971 C25.3558,66.9351 25.2308,66.8751 25.1058,66.8111 C24.7938,66.6511 24.4858,66.4851 24.1808,66.3151 C24.0458,66.2401 23.9108,66.1661 23.7768,66.0891 C23.4888,65.9231 23.2038,65.7511 22.9208,65.5751 C22.7738,65.4841 22.6268,65.3941 22.4808,65.3001 C22.2148,65.1291 21.9538,64.9521 21.6938,64.7731 C21.5388,64.6671 21.3828,64.5611 21.2288,64.4511 C20.9798,64.2721 20.7348,64.0881 20.4908,63.9021 C20.3358,63.7841 20.1808,63.6671 20.0278,63.5461 C19.7828,63.3521 19.5438,63.1531 19.3048,62.9511 C19.1638,62.8321 19.0218,62.7151 18.8828,62.5931 C18.6228,62.3661 18.3698,62.1331 18.1188,61.8981 C18.0108,61.7961 17.9008,61.6971 17.7928,61.5941 C17.4918,61.3041 17.1988,61.0071 16.9098,60.7061 C16.8598,60.6531 16.8068,60.6021 16.7568,60.5481 C10.6348,54.0681 7.3568,45.0011 8.5778,35.4671 C9.9458,24.7891 16.6288,16.0971 25.6258,11.6941 C25.6878,11.6631 25.7518,11.6351 25.8148,11.6041 C26.1998,11.4191 26.5878,11.2401 26.9808,11.0711 C27.0858,11.0261 27.1918,10.9831 27.2968,10.9391 C27.6508,10.7921 28.0058,10.6491 28.3658,10.5141 C28.4978,10.4641 28.6318,10.4181 28.7648,10.3701 C29.1008,10.2501 29.4378,10.1331 29.7788,10.0241 C29.9278,9.9761 30.0778,9.9321 30.2278,9.8871 C30.5558,9.7871 30.8848,9.6911 31.2168,9.6031 C31.3768,9.5601 31.5358,9.5211 31.6958,9.4821 C32.0208,9.4011 32.3458,9.3231 32.6738,9.2521 C32.8418,9.2161 33.0098,9.1841 33.1778,9.1511 C33.4988,9.0881 33.8198,9.0271 34.1438,8.9741 C34.3228,8.9451 34.5008,8.9191 34.6798,8.8931 C34.9918,8.8481 35.3038,8.8051 35.6178,8.7691 C35.8168,8.7461 36.0158,8.7281 36.2148,8.7091 C36.5078,8.6811 36.8008,8.6541 37.0948,8.6351 C37.3268,8.6201 37.5588,8.6111 37.7908,8.6011 C38.0518,8.5901 38.3118,8.5771 38.5738,8.5731 C38.8568,8.5681 39.1388,8.5711 39.4218,8.5741 C39.6348,8.5761 39.8468,8.5751 40.0598,8.5821 C40.4188,8.5931 40.7778,8.6141 41.1358,8.6371 C41.2758,8.6461 41.4148,8.6511 41.5548,8.6631 C42.0298,8.7001 42.5048,8.7491 42.9778,8.8081 C43.0048,8.8121 43.0318,8.8131 43.0598,8.8171 L43.0598,8.8171 C51.4228,9.8871 59.3158,14.3621 64.4938,21.8401 C74.1828,35.8321 70.6938,55.0291 56.7018,64.7181 L56.7018,64.7181 Z" id="Fill-1" fill="#424753" mask="url(#mask-2)"></path>
                    </g>
                    <path d="M159.448,39.2565 C159.448,24.7385 147.679,12.9695 133.161,12.9695 C118.643,12.9695 106.874,24.7385 106.874,39.2565 C106.874,53.7745 118.643,65.5435 133.161,65.5435 C147.679,65.5435 159.448,53.7745 159.448,39.2565 L159.448,39.2565 Z M133.172,21.1225 C133.169,21.1225 133.165,21.1215 133.161,21.1215 C123.313,21.1215 115.329,29.1055 115.329,38.9535 L113.012,38.9535 C113.012,27.8255 122.033,18.8045 133.161,18.8045 C133.165,18.8045 133.169,18.8055 133.172,18.8055 L133.172,21.1225 Z M133.172,26.9265 C126.51,26.9265 121.108,32.3035 121.059,38.9545 L118.701,38.9545 C118.75,31.0015 125.208,24.5685 133.172,24.5685 L133.172,26.9265 Z" id="Fill-4" fill="#424753"></path>
                    <g id="Group-8" transform="translate(119.000000, 90.000000)">
                        <mask id="mask-4" fill="white">
                            <use xlink:href="#path-3"></use>
                        </mask>
                        <g id="Clip-7"></g>
                        <path d="M21.7542,39.4009 L3.2002,39.4009 L3.2002,22.7109 L20.7162,22.7109 L20.7162,20.2079 L3.2002,20.2079 L3.2002,5.4879 L21.7542,5.4879 L21.7542,2.9849 L0.4852,2.9849 L0.4852,41.9029 L21.7542,41.9029 L21.7542,39.4009 Z M27.1742,41.9029 L29.8092,41.9029 L29.8092,0.4829 L27.1742,0.4829 L27.1742,41.9029 Z M53.0372,42.0499 C54.4222,41.7929 55.9302,41.3089 57.5632,40.5989 L57.5632,38.2029 C55.6462,38.9659 54.0622,39.4629 52.8112,39.6939 C51.5602,39.9249 50.1092,40.0399 48.4592,40.0399 C45.0692,40.0399 42.4652,38.9929 40.6462,36.8989 C38.8272,34.8049 37.9002,31.7699 37.8642,27.7949 L58.7072,27.7949 L58.7072,25.6649 C58.7072,21.5839 57.7222,18.3539 55.7532,15.9759 C53.7832,13.5979 51.0942,12.4089 47.6872,12.4089 C43.8362,12.4089 40.7742,13.7979 38.5032,16.5749 C36.2312,19.3519 35.0962,23.0479 35.0962,27.6619 C35.0962,32.3289 36.2712,35.9579 38.6232,38.5489 C40.9742,41.1399 44.2532,42.4359 48.4592,42.4359 C50.1272,42.4359 51.6532,42.3069 53.0372,42.0499 L53.0372,42.0499 Z M53.7292,17.5859 C55.1842,19.4759 55.9122,22.0979 55.9122,25.4519 L38.0242,25.4519 C38.3082,21.9919 39.2922,19.3429 40.9792,17.5059 C42.6642,15.6699 44.9002,14.7509 47.6872,14.7509 C50.2602,14.7509 52.2742,15.6959 53.7292,17.5859 L53.7292,17.5859 Z M83.3332,41.0779 L83.3332,38.6289 C81.0792,39.5699 78.6382,40.0399 76.0122,40.0399 C72.7292,40.0399 70.1732,38.9349 68.3462,36.7259 C66.5182,34.5159 65.6042,31.4599 65.6042,27.5549 C65.6042,23.4379 66.5182,20.2839 68.3462,18.0919 C70.1732,15.8999 72.8622,14.8039 76.4122,14.8039 C78.2572,14.8039 80.4312,15.2219 82.9332,16.0559 L83.6522,13.7129 C81.3632,12.8439 78.9672,12.4089 76.4652,12.4089 C72.2412,12.4089 68.9142,13.7439 66.4822,16.4149 C64.0512,19.0859 62.8352,22.8169 62.8352,27.6089 C62.8352,32.2759 64.0072,35.9139 66.3492,38.5229 C68.6922,41.1309 71.9302,42.4359 76.0652,42.4359 C79.0642,42.4359 81.4872,41.9829 83.3332,41.0779 L83.3332,41.0779 Z M94.3802,38.4959 C93.5992,37.4309 93.2082,35.7899 93.2082,33.5709 L93.2082,15.2569 L101.7002,15.2569 L101.7002,12.9679 L93.2082,12.9679 L93.2082,5.9669 L91.8512,5.9669 L90.5202,12.5149 L86.2342,13.7129 L86.2342,15.2569 L90.5202,15.2569 L90.5202,33.9439 C90.5202,36.8719 91.1282,39.0199 92.3432,40.3859 C93.5592,41.7529 95.4452,42.4359 98.0002,42.4359 C99.6682,42.4359 101.1412,42.2229 102.4192,41.7969 L102.4192,39.6669 C101.1762,39.9509 99.7212,40.0929 98.0532,40.0929 C96.3852,40.0929 95.1602,39.5609 94.3802,38.4959 L94.3802,38.4959 Z M126.4862,16.4149 C124.2232,13.7439 121.1042,12.4089 117.1292,12.4089 C113.1362,12.4089 109.9952,13.7259 107.7052,16.3619 C105.4162,18.9969 104.2722,22.6749 104.2722,27.3959 C104.2722,30.3949 104.7862,33.0389 105.8162,35.3279 C106.8452,37.6169 108.3262,39.3739 110.2612,40.5989 C112.1952,41.8229 114.4312,42.4359 116.9692,42.4359 C120.9972,42.4359 124.1562,41.1089 126.4462,38.4559 C128.7352,35.8029 129.8802,32.1159 129.8802,27.3959 C129.8802,22.7459 128.7482,19.0859 126.4862,16.4149 L126.4862,16.4149 Z M109.6352,18.0919 C111.3662,15.8999 113.8282,14.8039 117.0222,14.8039 C120.2172,14.8039 122.6962,15.9049 124.4632,18.1049 C126.2282,20.3059 127.1112,23.4029 127.1112,27.3959 C127.1112,31.3709 126.2372,34.4719 124.4892,36.6989 C122.7412,38.9259 120.2702,40.0399 117.0762,40.0399 C113.8812,40.0399 111.4102,38.9259 109.6622,36.6989 C107.9142,34.4719 107.0402,31.3709 107.0402,27.3959 C107.0402,23.3849 107.9052,20.2839 109.6352,18.0919 L109.6352,18.0919 Z M141.1162,13.6999 C139.7672,14.5609 138.4982,16.0559 137.3102,18.1849 L137.1232,18.1849 L136.8572,12.9679 L134.6212,12.9679 L134.6212,41.9029 L137.2562,41.9029 L137.2562,25.9309 C137.2562,22.7369 138.0462,20.0929 139.6262,17.9989 C141.2052,15.9049 143.2282,14.8579 145.6952,14.8579 C146.9902,14.8579 148.2412,15.0089 149.4482,15.3099 L149.9542,12.7809 C148.5522,12.5329 147.2392,12.4089 146.0142,12.4089 C144.0982,12.4089 142.4652,12.8389 141.1162,13.6999 L141.1162,13.6999 Z M172.6232,41.9029 L172.6232,22.6569 C172.6232,19.1609 171.8382,16.5879 170.2672,14.9379 C168.6972,13.2869 166.3232,12.4619 163.1472,12.4619 C160.0412,12.4619 156.9002,13.2069 153.7232,14.6979 L154.7082,16.9869 C157.5832,15.4969 160.3602,14.7509 163.0402,14.7509 C165.5252,14.7509 167.3262,15.4519 168.4442,16.8539 C169.5622,18.2559 170.1212,20.3329 170.1212,23.0829 L170.1212,24.9999 L164.6112,25.1599 C160.1562,25.2489 156.7532,26.0739 154.4022,27.6349 C152.0502,29.1969 150.8752,31.3889 150.8752,34.2099 C150.8752,36.7839 151.6652,38.7979 153.2442,40.2529 C154.8242,41.7079 157.0332,42.4359 159.8722,42.4359 C161.9662,42.4359 163.7812,42.0499 165.3162,41.2779 C166.8512,40.5059 168.3462,39.1879 169.8022,37.3249 L170.0152,37.3249 L170.6802,41.9029 L172.6232,41.9029 Z M155.3342,38.5359 C154.2252,37.5329 153.6702,36.1269 153.6702,34.3169 C153.6702,32.0449 154.5352,30.3729 156.2662,29.2989 C157.9962,28.2249 160.8932,27.5909 164.9572,27.3959 L170.0152,27.1829 L170.0152,30.0309 C170.0152,33.1719 169.1232,35.6259 167.3392,37.3909 C165.5562,39.1569 163.1202,40.0399 160.0322,40.0399 C158.0092,40.0399 156.4432,39.5389 155.3342,38.5359 L155.3342,38.5359 Z M178.1782,41.9029 L180.8132,41.9029 L180.8132,0.4829 L178.1782,0.4829 L178.1782,41.9029 Z" id="Fill-6" fill="#424753" mask="url(#mask-4)"></path>
                    </g>
                    <g id="Group-11" transform="translate(0.000000, 92.000000)">
                        <mask id="mask-6" fill="white">
                            <use xlink:href="#path-5"></use>
                        </mask>
                        <g id="Clip-10"></g>
                        <path d="M23.1115,39.9032 L23.1115,34.4462 L6.6335,34.4462 L6.6335,0.9852 L0.2715,0.9852 L0.2715,39.9032 L23.1115,39.9032 Z M52.1165,39.9032 L52.1165,10.4622 L45.8335,10.4622 L45.8335,25.1292 C45.8335,28.8212 45.2175,31.4512 43.9835,33.0222 C42.7505,34.5922 40.8205,35.3782 38.1945,35.3782 C36.2245,35.3782 34.7775,34.8142 33.8555,33.6872 C32.9325,32.5612 32.4705,30.8702 32.4705,28.6162 L32.4705,10.4622 L26.1625,10.4622 L26.1625,29.7082 C26.1625,33.3102 27.0405,35.9992 28.7975,37.7732 C30.5545,39.5482 33.2165,40.4352 36.7835,40.4352 C38.8415,40.4352 40.6735,40.0452 42.2805,39.2642 C43.8865,38.4832 45.1235,37.4102 45.9935,36.0432 L46.3135,36.0432 L47.1915,39.9032 L52.1165,39.9032 Z M81.8795,36.3892 C83.9645,33.6922 85.0075,29.9392 85.0075,25.1292 C85.0075,20.3202 83.9825,16.5842 81.9325,13.9222 C79.8835,11.2602 77.0215,9.9292 73.3485,9.9292 C69.4435,9.9292 66.5155,11.4202 64.5635,14.4012 L64.2445,14.4012 C63.8005,12.3252 63.5075,11.0122 63.3655,10.4622 L58.3075,10.4622 L58.3075,53.0002 L64.5635,53.0002 L64.5635,40.9412 C64.5635,40.4092 64.4395,38.9012 64.1905,36.4162 L64.5635,36.4162 C66.6215,39.0962 69.5145,40.4352 73.2415,40.4352 C76.9155,40.4352 79.7945,39.0872 81.8795,36.3892 L81.8795,36.3892 Z M76.8485,17.5822 C78.0105,19.2772 78.5925,21.7752 78.5925,25.0762 C78.5925,28.3592 78.0065,30.8882 76.8355,32.6622 C75.6635,34.4372 73.9955,35.3242 71.8305,35.3242 C69.2575,35.3242 67.4025,34.5222 66.2675,32.9152 C65.1315,31.3092 64.5635,28.7142 64.5635,25.1292 L64.5635,24.1972 C64.5635,21.0032 65.1355,18.6782 66.2805,17.2232 C67.4255,15.7682 69.2395,15.0402 71.7245,15.0402 C73.9775,15.0402 75.6855,15.8882 76.8485,17.5822 L76.8485,17.5822 Z M112.4415,39.9032 L112.4415,20.0712 C112.4415,16.5752 111.4875,14.0112 109.5795,12.3782 C107.6725,10.7462 104.8455,9.9292 101.1015,9.9292 C99.4155,9.9292 97.6235,10.1472 95.7245,10.5812 C93.8255,11.0172 92.0775,11.6512 90.4805,12.4852 L92.5035,16.9572 C93.7815,16.3542 95.1125,15.8302 96.4965,15.3862 C97.8805,14.9432 99.3265,14.7212 100.8355,14.7212 C102.6805,14.7212 104.0435,15.1872 104.9215,16.1182 C105.7995,17.0502 106.2395,18.4572 106.2395,20.3382 L106.2395,21.9082 L101.1545,22.0682 C96.5405,22.2102 93.1065,23.0532 90.8535,24.5972 C88.5995,26.1412 87.4725,28.4302 87.4725,31.4652 C87.4725,34.3222 88.2845,36.5312 89.9085,38.0932 C91.5315,39.6552 93.7895,40.4352 96.6825,40.4352 C98.9365,40.4352 100.7825,40.1112 102.2195,39.4642 C103.6575,38.8162 105.0855,37.5962 106.5055,35.8042 L106.7185,35.8042 L107.9695,39.9032 L112.4415,39.9032 Z M95.1385,34.5662 C94.3575,33.8472 93.9675,32.8312 93.9675,31.5182 C93.9675,29.7082 94.6375,28.3632 95.9775,27.4852 C97.3175,26.6072 99.4595,26.1142 102.4055,26.0082 L106.1855,25.8482 L106.1855,28.4032 C106.1855,30.6932 105.4985,32.4722 104.1225,33.7412 C102.7475,35.0102 100.9245,35.6442 98.6525,35.6442 C97.0905,35.6442 95.9195,35.2852 95.1385,34.5662 L95.1385,34.5662 Z" id="Fill-9" fill="#424753" mask="url(#mask-6)"></path>
                    </g>
                </g>
                <path d="M24.0903,93.3754 L21.8543,104.9814 L13.7353,104.9814 L15.9183,93.3754 L12.2183,93.3754 L10.0363,104.9814 L2.0763,104.9814 L2.0763,108.3624 L9.4503,108.3624 L7.6403,117.4124 L0.0003,117.4124 L0.0003,120.8474 L6.9743,120.8474 L4.8443,132.2934 L8.4653,132.2934 L10.6483,120.8474 L18.7133,120.8474 L16.4773,132.2934 L20.1243,132.2934 L22.3603,120.8474 L30.5323,120.8474 L30.5323,117.4124 L22.9993,117.4124 L24.7563,108.3624 L32.4493,108.3624 L32.4493,104.9814 L25.4213,104.9814 L27.6583,93.3754 L24.0903,93.3754 Z M13.0433,108.3624 L21.1093,108.3624 L19.3523,117.4124 L11.2873,117.4124 L13.0433,108.3624 Z" id="Fill-13" fill="#424753"></path>
            </g>
        </g>
    </g>
</svg>