<?xml version="1.0" encoding="UTF-8" standalone="no"?>
<!-- Generator: Adobe Illustrator 16.0.0, SVG Export Plug-In . SVG Version: 6.00 Build 0)  -->

<svg
   xmlns:dc="http://purl.org/dc/elements/1.1/"
   xmlns:cc="http://creativecommons.org/ns#"
   xmlns:rdf="http://www.w3.org/1999/02/22-rdf-syntax-ns#"
   xmlns:svg="http://www.w3.org/2000/svg"
   xmlns="http://www.w3.org/2000/svg"
   xmlns:sodipodi="http://sodipodi.sourceforge.net/DTD/sodipodi-0.dtd"
   xmlns:inkscape="http://www.inkscape.org/namespaces/inkscape"
   version="1.1"
   id="Capa_1"
   x="0px"
   y="0px"
   width="350.368px"
   height="350.368px"
   viewBox="0 0 350.368 350.368"
   style="enable-background:new 0 0 350.368 350.368;"
   xml:space="preserve"
   inkscape:version="0.91 r13725"
   sodipodi:docname="voting-urn.svg"><metadata
     id="metadata43"><rdf:RDF><cc:Work
         rdf:about=""><dc:format>image/svg+xml</dc:format><dc:type
           rdf:resource="http://purl.org/dc/dcmitype/StillImage" /></cc:Work></rdf:RDF></metadata><defs
     id="defs41" /><sodipodi:namedview
     pagecolor="#ffffff"
     bordercolor="#666666"
     borderopacity="1"
     objecttolerance="10"
     gridtolerance="10"
     guidetolerance="10"
     inkscape:pageopacity="0"
     inkscape:pageshadow="2"
     inkscape:window-width="1280"
     inkscape:window-height="738"
     id="namedview39"
     showgrid="false"
     inkscape:zoom="0.67357747"
     inkscape:cx="-40.084476"
     inkscape:cy="112.83038"
     inkscape:window-x="0"
     inkscape:window-y="25"
     inkscape:window-maximized="1"
     inkscape:current-layer="Capa_1" /><g
     id="g3"
     style="fill:#fefefe;fill-opacity:1"><g
       id="g5"
       style="fill:#fefefe;fill-opacity:1"><path
         d="M306.869,215.284c0-0.757-0.276-1.411-0.396-2.138c-0.054-0.294-0.09-0.595-0.156-0.889    c-0.324-1.333-0.816-2.546-1.514-3.687c-0.168-0.295-0.324-0.589-0.516-0.871c-0.24-0.354-0.379-0.781-0.667-1.111l-55.021-86.664    c-2.42-3.825-6.63-6.143-11.151-6.143h-0.078l30.781-30.778c5.164-5.17,5.164-13.538,0-18.705L207.735,3.87    C205.256,1.396,201.887,0,198.387,0c-3.507,0-6.882,1.396-9.355,3.87L82.041,110.861c-5.167,5.17-5.167,13.538,0,18.705    l8.22,8.227l-44.696,70.4c-0.081,0.114-0.105,0.246-0.174,0.354c-0.447,0.78-0.823,1.597-1.123,2.45    c-0.105,0.288-0.186,0.564-0.27,0.858c-0.204,0.799-0.345,1.615-0.402,2.468c-0.018,0.24-0.06,0.469-0.066,0.721    c-0.018,0.084-0.03,0.15-0.03,0.15V337.14c0,7.308,5.921,13.229,13.22,13.229h236.736c7.313,0,13.229-5.921,13.229-13.229V217.025    C306.772,216.449,306.869,215.885,306.869,215.284z M109.419,156.947l29.214,29.214H115.58c-2.441,0-4.401,1.969-4.401,4.407    s1.955,4.407,4.401,4.407h119.027c2.438,0,4.413-1.957,4.413-4.407c0-2.438-1.976-4.407-4.413-4.407H165l45.907-45.916h19.27    l39.223,61.811H80.785L109.419,156.947z M280.244,323.923H69.956v-95.422h210.289V323.923z"
         id="path7"
         style="fill:#fefefe;fill-opacity:1" /></g></g><g
     id="g9" /><g
     id="g11" /><g
     id="g13" /><g
     id="g15" /><g
     id="g17" /><g
     id="g19" /><g
     id="g21" /><g
     id="g23" /><g
     id="g25" /><g
     id="g27" /><g
     id="g29" /><g
     id="g31" /><g
     id="g33" /><g
     id="g35" /><g
     id="g37" /></svg>