[
	{
		"name": "Tarapacá",
		"region_id": "1",
		"monto": "550000000"
	},
	{
		"name": "Antofagasta",
		"region_id": "2",
		"monto": "530000000"
	},
	{
		"name": "Atacama",
		"region_id": "3",
		"monto": "520000000"
	},
	{
		"name": "Coquimbo",
		"region_id": "4",
		"monto": "510000000"
	},
	{
		"name": "Valparaíso",
		"region_id": "5",
		"monto": "500000000"
	},
	{
		"name": "Región del Libertador Gral. Bernardo O'Higgins",
		"region_id": "6",
		"monto": "490000000"
	},
	{
		"name": "Región del Maule",
		"region_id": "7",
		"monto": "480000000"
	},
	{
		"name": "Región del Biobío",
		"region_id": "8",
		"monto": "470000000"
	},
	{
		"name": "Región de la Araucanía",
		"region_id": "9",
		"monto": "460000000"
	},
	{
		"name": "Región de Los Lagos",
		"region_id": "10",
		"monto": "450000000"
	},
	{
		"name": "Región Aisén del Gral. Carlos Ibáñez del Campo",
		"region_id": "11",
		"monto": "440000000"
	},
	{
		"name": "Región de Magallanes y de la Antártica Chilena",
		"region_id": "12",
		"monto": "430000000"
	},
	{
		"name": "Región Metropolitana de Santiago",
		"region_id": "13",
		"monto": "420000000"
	},
	{
		"name": "Región de Los Ríos",
		"region_id": "14",
		"monto": "410000000"
	},
	{
		"name": "Arica y Parinacota",
		"region_id": "15",
		"monto": "400000000"
	}
]